\relax 
\citation{rhexdarpa}
\citation{pz}
\@writefile{toc}{\contentsline {chapter}{\numberline {1}Wst\k ep}{3}}
\@writefile{lof}{\addvspace {10\p@ }}
\@writefile{lot}{\addvspace {10\p@ }}
\citation{inz}
\citation{doktoratagh}
\citation{tch}
\citation{tchon2000manipulatory}
\@writefile{toc}{\contentsline {chapter}{\numberline {2}Podej\'scie do modelowania robota}{5}}
\@writefile{lof}{\addvspace {10\p@ }}
\@writefile{lot}{\addvspace {10\p@ }}
\@writefile{toc}{\contentsline {section}{\numberline {2.1}Zasada d'Alemberta}{5}}
\@writefile{toc}{\contentsline {section}{\numberline {2.2}Model we wsp\'o\IeC {\l }rz\k ednych uog\'olnionych}{6}}
\@writefile{toc}{\contentsline {section}{\numberline {2.3}Model we wsp\'o\IeC {\l }rz\k ednych pomocniczych}{6}}
\@writefile{lof}{\contentsline {figure}{\numberline {2.1}{\ignorespaces Zale\.zno\'s\'c punktu podparcia od pozycji nogi.}}{7}}
\newlabel{dlnogi}{{2.1}{7}}
\@writefile{toc}{\contentsline {section}{\numberline {2.4}Model kinematyki}{7}}
\@writefile{lof}{\contentsline {figure}{\numberline {2.2}{\ignorespaces Schemat badanego robota.}}{8}}
\newlabel{schemat}{{2.2}{8}}
\@writefile{toc}{\contentsline {subsection}{\numberline {2.4.1}Model z dopuszczonymi po\'slizgami poprzecznymi}{8}}
\@writefile{toc}{\contentsline {section}{\numberline {2.5}Model dynamiki robota tr\'ojko\IeC {\l }owego}{9}}
\@writefile{toc}{\contentsline {section}{\numberline {2.6}Parametry badanej konstrukcji}{10}}
\citation{inz}
\@writefile{toc}{\contentsline {chapter}{\numberline {3}Algorytmy sterowania robota}{11}}
\@writefile{lof}{\addvspace {10\p@ }}
\@writefile{lot}{\addvspace {10\p@ }}
\@writefile{toc}{\contentsline {section}{\numberline {3.1}Naiwny algorytm ruchu po krzywi\'znie}{11}}
\@writefile{toc}{\contentsline {section}{\numberline {3.2}Sterowanie w oparciu o model}{12}}
\@writefile{toc}{\contentsline {section}{\numberline {3.3}Zadanie sterowania}{12}}
\@writefile{toc}{\contentsline {section}{\numberline {3.4}Algorytm sterowania robota ko\IeC {\l }owego z po\'slizgami}{13}}
\@writefile{toc}{\contentsline {section}{\numberline {3.5}Algorytm sterowania robota z nogami typu wheg}{14}}
